<?xml version="1.0" encoding="UTF-8" standalone="no"?>
<!-- Created with Inkscape (http://www.inkscape.org/) -->

<svg
   width="128"
   height="128"
   viewBox="0 0 33.866666 33.866668"
   version="1.1"
   id="svg5"
   sodipodi:docname="bricks.svg"
   inkscape:export-filename="../Resources/UI/Bricks.png"
   inkscape:export-xdpi="96.000008"
   inkscape:export-ydpi="96.000008"
   inkscape:version="1.1.2 (0a00cf5339, 2022-02-04)"
   xmlns:inkscape="http://www.inkscape.org/namespaces/inkscape"
   xmlns:sodipodi="http://sodipodi.sourceforge.net/DTD/sodipodi-0.dtd"
   xmlns="http://www.w3.org/2000/svg"
   xmlns:svg="http://www.w3.org/2000/svg">
  <sodipodi:namedview
     id="namedview7"
     pagecolor="#505050"
     bordercolor="#eeeeee"
     borderopacity="1"
     inkscape:pageshadow="0"
     inkscape:pageopacity="0"
     inkscape:pagecheckerboard="0"
     inkscape:document-units="px"
     showgrid="false"
     units="px"
     width="128px"
     inkscape:snap-global="false"
     inkscape:zoom="4.2302489"
     inkscape:cx="38.413815"
     inkscape:cy="71.390598"
     inkscape:window-width="1920"
     inkscape:window-height="1056"
     inkscape:window-x="0"
     inkscape:window-y="0"
     inkscape:window-maximized="1"
     inkscape:current-layer="layer1" />
  <defs
     id="defs2">
    <inkscape:path-effect
       effect="powerstroke"
       id="path-effect4192"
       is_visible="true"
       lpeversion="1"
       offset_points="12.513608,1.2021403 | 8.9142123,0.55031373 | 7.6903642,0.57568169 | 4.6855891,0.36976071 | 0.91622864,0.24578299 | 13.946,2.1275978 | 12.972455,1.5077286"
       not_jump="false"
       sort_points="true"
       interpolator_type="CentripetalCatmullRom"
       interpolator_beta="0.2"
       start_linecap_type="zerowidth"
       linejoin_type="round"
       miter_limit="4"
       scale_width="1"
       end_linecap_type="zerowidth" />
    <inkscape:path-effect
       effect="powerstroke"
       id="path-effect4186"
       is_visible="true"
       lpeversion="1"
       offset_points="12.513608,1.2021403 | 8.9142123,0.55031373 | 7.6903642,0.57568169 | 4.6855891,0.36976071 | 0.91622864,0.24578299 | 13.946,2.1275978 | 12.972455,1.5077286"
       not_jump="false"
       sort_points="true"
       interpolator_type="CentripetalCatmullRom"
       interpolator_beta="0.2"
       start_linecap_type="zerowidth"
       linejoin_type="round"
       miter_limit="4"
       scale_width="1"
       end_linecap_type="zerowidth" />
    <inkscape:path-effect
       effect="powerstroke"
       id="path-effect3735"
       is_visible="true"
       lpeversion="1"
       offset_points="12.513608,1.2021403 | 8.9142123,0.55031373 | 7.6903642,0.57568169 | 4.6855891,0.36976071 | 0.91622864,0.24578299 | 13.946,2.1275978 | 12.972455,1.5077286"
       not_jump="false"
       sort_points="true"
       interpolator_type="CentripetalCatmullRom"
       interpolator_beta="0.2"
       start_linecap_type="zerowidth"
       linejoin_type="round"
       miter_limit="4"
       scale_width="1"
       end_linecap_type="zerowidth" />
    <inkscape:path-effect
       effect="powerstroke"
       id="path-effect3103"
       is_visible="true"
       lpeversion="1"
       offset_points="12.513608,1.2021403 | 8.9142123,0.55031373 | 7.6903642,0.57568169 | 4.6855891,0.36976071 | 0.91622864,0.24578299 | 13.946,2.1275978 | 12.972455,1.5077286"
       not_jump="false"
       sort_points="true"
       interpolator_type="CentripetalCatmullRom"
       interpolator_beta="0.2"
       start_linecap_type="zerowidth"
       linejoin_type="round"
       miter_limit="4"
       scale_width="1"
       end_linecap_type="zerowidth" />
    <inkscape:path-effect
       effect="powerstroke"
       id="path-effect1102"
       is_visible="true"
       lpeversion="1"
       offset_points="12.513608,1.2021403 | 8.9142123,0.55031373 | 7.6903642,0.57568169 | 4.6855891,0.36976071 | 0.91622864,0.24578299 | 13.946,2.1275978 | 12.972455,1.5077286"
       not_jump="false"
       sort_points="true"
       interpolator_type="CentripetalCatmullRom"
       interpolator_beta="0.2"
       start_linecap_type="zerowidth"
       linejoin_type="round"
       miter_limit="4"
       scale_width="1"
       end_linecap_type="zerowidth" />
    <clipPath
       clipPathUnits="userSpaceOnUse"
       id="clipPath4886">
      <path
         id="path4888"
         style="fill:none;fill-opacity:1;fill-rule:nonzero;stroke:#fe0000;stroke-width:0.377953;stroke-miterlimit:4;stroke-dasharray:none;stroke-opacity:1"
         d="m 62.58453,48.904198 c 0.27704,-0.02306 0.584402,-6.92e-4 0.857979,0.110551 0.204057,0.08296 0.367597,0.206475 0.487506,0.366198 0.100952,0.134476 0.169663,0.292649 0.210936,0.471266 0.03742,0.161159 0.05299,0.34337 0.04592,0.541058 -0.01285,0.359698 -0.102576,0.767819 -0.262715,1.129927 -0.07385,0.16698 -0.158211,0.313248 -0.245442,0.427046 -0.02759,0.03628 -0.05514,0.06826 -0.0816,0.09581 -0.05227,0.05446 -0.0997,0.08984 -0.134022,0.103483 -0.27481,0.244573 -0.582773,0.441566 -0.925811,0.589776 -0.319256,0.137915 -0.673969,0.23573 -1.065131,0.287282 -0.72339,0.09532 -1.566607,0.03061 -2.482636,-0.223975 -0.839811,-0.233461 -1.707643,-0.618723 -2.510736,-1.131488 -0.756703,-0.483145 -1.423552,-1.059768 -1.911073,-1.66797 -0.886798,-1.094011 -1.388269,-2.237189 -1.57053,-3.371369 -0.176692,-1.099612 -0.05718,-2.217369 0.334904,-3.293144 0.384443,-1.054775 1.030855,-2.066298 1.904164,-2.950663 0.861445,-0.872349 1.933561,-1.610082 3.15891,-2.129945 1.826805,-0.776564 3.796986,-1.113086 5.800249,-1.069289 2.009858,0.04396 4.039321,0.470676 5.963081,1.206252 1.944098,0.743346 3.75953,1.794002 5.32772,3.05954 1.599153,1.290519 2.920642,2.787174 3.877183,4.392374 0.636223,1.065796 1.041438,2.133558 1.259751,3.186924 0.222085,1.071602 0.253984,2.144001 0.126954,3.203686 -0.262715,2.191125 -1.207827,4.34815 -2.59497,6.330221 -1.077173,1.539156 -2.409861,2.957624 -3.878385,4.204547 -0.520188,0.441691 -1.062361,0.866181 -1.622929,1.270794 -2.162397,1.56079 -4.581404,2.813224 -7.028739,3.613025 -3.042345,0.999605 -6.258534,1.33553 -9.474553,1.094562 -3.207039,-0.240302 -6.396794,-1.053256 -9.382054,-2.335272 -2.993049,-1.285356 -5.757936,-3.032428 -8.116521,-5.118523 -2.378695,-2.103885 -4.321834,-4.532198 -5.686359,-7.157412 -1.68788,-3.235072 -2.435406,-6.47201 -2.440986,-9.541395 -0.0057,-3.135466 0.76186,-6.128841 2.136214,-8.829677 1.415086,-2.78088 3.473637,-5.253995 6.013048,-7.281546 2.636539,-2.105097 5.774035,-3.717719 9.252897,-4.731946 4.313563,-1.261877 8.737262,-1.565412 12.98298,-1.166785 4.526071,0.424949 8.85081,1.645563 12.732302,3.369552 3.178628,1.411809 6.054006,3.156876 8.562795,5.097044 0.833919,0.644909 1.619313,1.304769 2.356861,1.973513 3.46399,3.140855 5.940072,6.533174 7.590614,9.826043 2.204508,4.40366 3.060382,8.675146 3.035758,12.544807 -0.02532,3.962208 -0.97621,7.940538 -2.912451,11.68006 -1.705028,3.292973 -4.320215,6.66904 -8.083185,9.5928 -2.1257,1.651634 -4.689724,3.212167 -7.723487,4.483744 -1.432868,0.600574 -2.996666,1.148024 -4.692397,1.608268 -5.005495,1.362332 -10.632649,1.880252 -16.674023,1.227029 -5.316159,-0.57481 -10.841734,-2.05033 -16.201264,-4.518097 -4.935339,-2.272448 -9.6598,-5.358595 -13.739922,-9.198077 -3.864539,-3.636613 -7.109417,-7.913273 -9.331928,-12.684363 -2.421977,-5.186245 -3.475919,-10.453293 -3.29696,-15.550776 0.175562,-5.000625 1.539661,-9.83534 3.950448,-14.231568 2.399731,-4.376069 5.82863,-8.304315 10.117739,-11.512367 4.322491,-3.23302 9.488069,-5.711995 15.302227,-7.1937319 6.606671,-1.6904014 13.405693,-1.9981214 19.994472,-1.214492 6.841957,0.813741 13.411139,2.7967239 19.344128,5.5946109 6.290997,2.966716 11.79388,6.810657 16.286869,11.132226 4.90752,4.720286 8.52195,9.91583 10.88653,15.201757 3.09244,6.882797 4.36663,12.376627 4.71855,16.742303 0.44439,5.512864 -0.56012,9.596973 -1.72504,12.502609 -0.0803,0.200353 -0.16192,0.396265 -0.2445,0.587796 -1.83351,4.252653 -4.56629,7.282526 -6.5182,9.165275 -2.19856,2.120648 -5.285259,4.56573 -9.660308,7.286472 -0.439994,0.273638 -0.906376,0.551992 -1.399401,0.834674 -3.395248,1.91983 -8.429998,3.991348 -15.328679,6.200323 -5.961127,1.908763 -12.465634,3.654062 -19.063083,5.317316 -6.979018,1.759439 -13.497263,3.286719 -18.421012,4.634499 -3.206522,0.87772 -5.729274,1.67508 -7.60186,2.4776 -1.628135,0.69776 -2.745025,1.3915 -3.398151,2.12945 -2.037777,2.30242 -0.174906,7.15226 -0.15958,8.41944 0.673366,1.06835 1.752158,6.1528 4.587701,7.04157 0.917499,0.28758 2.202336,0.29983 3.944732,0.0468 1.99683,-0.29 4.608477,-0.93092 7.839868,-1.89489 4.903748,-1.46285 11.539135,-3.77263 18.495454,-6.52177 6.566245,-2.59499 13.176008,-5.48475 19.194576,-8.51303 7.073492,-3.55908 12.223299,-6.745289 16.226784,-9.654913 0.523709,-0.3807 1.022419,-0.74651 1.502429,-1.10013 4.81294,-3.545673 8.16006,-6.852627 10.67321,-9.832698 2.1293,-2.524898 5.43962,-6.903605 7.54834,-12.726096 0.096,-0.265021 0.19056,-0.535812 0.28331,-0.812398 1.37474,-4.099215 2.37791,-9.531285 1.57852,-16.424417 -0.62639,-5.401361 -2.35698,-11.727379 -5.91842,-19.218064 -2.94632,-6.186595 -7.28341,-12.08188 -12.94336,-17.306859 C 97.446832,14.415077 91.209697,10.248517 84.181703,7.0893205 77.552408,4.1093451 70.237454,2.0379055 62.62575,1.26242 55.291671,0.51521909 47.686683,0.9762326 40.28588,2.9942775 33.73257,4.7867695 27.877081,7.7158313 22.96465,11.533018 18.090789,15.320233 14.185417,19.951468 11.471898,25.124988 8.7419351,30.329862 7.2452703,36.031953 7.1410558,41.900835 7.0347604,47.88701 8.3771431,53.950377 11.208249,59.79172 c 2.617408,5.389432 6.340451,10.110958 10.64905,14.048478 4.550863,4.158916 9.756728,7.449864 15.139696,9.843609 5.849017,2.600991 11.865734,4.13003 17.658752,4.688134 6.588321,0.634726 12.746226,0.0076 18.248125,-1.5465 1.873191,-0.530377 3.604082,-1.156634 5.193612,-1.841938 3.365325,-1.450911 6.225211,-3.218683 8.610686,-5.091481 4.221789,-3.314452 7.209127,-7.146587 9.189649,-10.925026 2.249372,-4.291348 3.409002,-8.894903 3.487862,-13.517046 0.0772,-4.522964 -0.87447,-9.474852 -3.36163,-14.518469 -1.871168,-3.798491 -4.667841,-7.637105 -8.536599,-11.134906 -0.823412,-0.744458 -1.698724,-1.476226 -2.626504,-2.188821 -2.789567,-2.142573 -5.974601,-4.053455 -9.484085,-5.588037 -4.282916,-1.872779 -9.066766,-3.19014 -14.091538,-3.621392 -4.715943,-0.404747 -9.669551,-0.02838 -14.525019,1.441672 -3.950646,1.199399 -7.54161,3.0933 -10.571585,5.580197 -2.917847,2.394864 -5.299533,5.329046 -6.928175,8.652873 -1.583965,3.232651 -2.446154,6.818468 -2.382361,10.56181 0.06253,3.668969 1.01482,7.452087 3.002481,11.141938 1.629813,3.016463 3.890889,5.734053 6.577905,8.039803 2.665516,2.287302 5.75513,4.173506 9.070981,5.542984 3.308689,1.366518 6.845643,2.219875 10.413528,2.440493 3.58069,0.221405 7.186587,-0.195137 10.6139,-1.365452 2.738079,-0.939288 5.401001,-2.367606 7.761861,-4.115048 0.614109,-0.454548 1.208643,-0.931298 1.779791,-1.427622 1.608434,-1.397718 3.090935,-3.002041 4.30289,-4.768724 1.555105,-2.2669 2.693162,-4.845714 3.000619,-7.578633 0.14933,-1.327419 0.101897,-2.68859 -0.190223,-4.056439 -0.287433,-1.345882 -0.809034,-2.68507 -1.597674,-3.992575 -1.141781,-1.889862 -2.684372,-3.607238 -4.503682,-5.062988 -1.785021,-1.42831 -3.840019,-2.607209 -6.038037,-3.439869 -2.17491,-0.823903 -4.495275,-1.310521 -6.824946,-1.355295 -2.325687,-0.0447 -4.657761,0.351371 -6.847487,1.288937 -1.525236,0.653995 -2.870015,1.583902 -3.959535,2.697854 -1.103925,1.128676 -1.948241,2.448662 -2.45525,3.869284 -0.519488,1.455595 -0.680027,3.003376 -0.418197,4.542146 0.270803,1.591396 0.983312,3.118507 2.129934,4.502491 0.69905,0.838095 1.592376,1.563998 2.539722,2.137103 1.011912,0.612167 2.107903,1.06492 3.188209,1.324865 1.178018,0.283464 2.337978,0.338834 3.398657,0.137083 0.57651,-0.109644 1.116487,-0.293783 1.610835,-0.55121 0.532747,-0.277417 0.998698,-0.632731 1.396055,-1.052493 0.14434,-0.161915 0.256705,-0.336982 0.343824,-0.505538 0.04513,-0.08731 0.08519,-0.176315 0.120642,-0.26589 0.109228,-0.275905 0.178772,-0.567118 0.21566,-0.852079 0.07952,-0.613841 0.01323,-1.23058 -0.171288,-1.744456 -0.102879,-0.286224 -0.241588,-0.539154 -0.410669,-0.749715 -0.188749,-0.235011 -0.40642,-0.406352 -0.638498,-0.518891 -0.2688,-0.130356 -0.543791,-0.174728 -0.798195,-0.171099 -0.335206,0.0049 -0.652792,0.09173 -0.907468,0.178356 z"
         sodipodi:nodetypes="cscsssssssssssc" />
    </clipPath>
    <clipPath
       clipPathUnits="userSpaceOnUse"
       id="clipPath5665">
      <path
         id="path5667"
         style="fill:none;fill-opacity:1;fill-rule:nonzero;stroke:#fe0000;stroke-width:0.377953;stroke-miterlimit:4;stroke-dasharray:none;stroke-opacity:1"
         d="m 64.58453,50.904198 c 0.27704,-0.02306 0.584402,-6.92e-4 0.857979,0.110551 0.204057,0.08296 0.367597,0.206475 0.487506,0.366198 0.100952,0.134476 0.169663,0.292649 0.210936,0.471266 0.03742,0.161159 0.05299,0.34337 0.04592,0.541058 -0.01285,0.359698 -0.102576,0.767819 -0.262715,1.129927 -0.07385,0.16698 -0.158211,0.313248 -0.245442,0.427046 -0.02759,0.03628 -0.05514,0.06826 -0.0816,0.09581 -0.05227,0.05446 -0.0997,0.08984 -0.134022,0.103483 -0.27481,0.244573 -0.582773,0.441566 -0.925811,0.589776 -0.319256,0.137915 -0.673969,0.23573 -1.065131,0.287282 -0.72339,0.09532 -1.566607,0.03061 -2.482636,-0.223975 -0.839811,-0.233461 -1.707643,-0.618723 -2.510736,-1.131488 -0.756703,-0.483145 -1.423552,-1.059768 -1.911073,-1.66797 -0.886798,-1.094011 -1.388269,-2.237189 -1.57053,-3.371369 -0.176692,-1.099612 -0.05718,-2.217369 0.334904,-3.293144 0.384443,-1.054775 1.030855,-2.066298 1.904164,-2.950662 0.861445,-0.872349 1.933561,-1.610082 3.15891,-2.129945 1.826805,-0.776565 3.796986,-1.113087 5.800249,-1.06929 2.009858,0.04396 4.039321,0.470676 5.963081,1.206253 1.944098,0.743346 3.75953,1.794002 5.32772,3.059539 1.599153,1.290519 2.920642,2.787174 3.877183,4.392374 0.636223,1.065796 1.041438,2.133558 1.259751,3.186924 0.222085,1.071602 0.253984,2.144001 0.126954,3.203686 -0.262715,2.191125 -1.207827,4.34815 -2.59497,6.330221 -1.077173,1.539156 -2.409861,2.957624 -3.878385,4.204547 -0.520188,0.441691 -1.062361,0.866181 -1.622929,1.270794 -2.162397,1.56079 -4.581404,2.813224 -7.028739,3.613025 -3.042345,0.999605 -6.258534,1.33553 -9.474553,1.094562 -3.207039,-0.240302 -6.396794,-1.053256 -9.382054,-2.335272 -2.993049,-1.285356 -5.757936,-3.032428 -8.11652,-5.118523 -2.378696,-2.103885 -4.321835,-4.532198 -5.68636,-7.157412 -1.68788,-3.235072 -2.435406,-6.47201 -2.440986,-9.541395 -0.0057,-3.135466 0.76186,-6.12884 2.136214,-8.829677 1.415086,-2.78088 3.473637,-5.253995 6.013049,-7.281546 2.636538,-2.105097 5.774034,-3.717719 9.252896,-4.731946 4.313563,-1.261877 8.737262,-1.565412 12.98298,-1.166785 4.526071,0.424949 8.85081,1.645563 12.732302,3.369552 3.178628,1.411809 6.054006,3.156876 8.562795,5.097044 0.833919,0.644909 1.619313,1.304769 2.356861,1.973513 3.46399,3.140855 5.940072,6.533175 7.590614,9.826043 2.204508,4.40366 3.060382,8.675146 3.035758,12.544807 -0.02532,3.962208 -0.97621,7.940538 -2.912451,11.68006 -1.705028,3.292973 -4.320215,6.66904 -8.083185,9.5928 -2.1257,1.651634 -4.689724,3.212167 -7.723487,4.483744 -1.432868,0.600574 -2.996666,1.148024 -4.692397,1.608268 -5.005495,1.362332 -10.632649,1.880252 -16.674023,1.227029 -5.316159,-0.57481 -10.841734,-2.05033 -16.201263,-4.518097 -4.93534,-2.272448 -9.659801,-5.358595 -13.739923,-9.198077 -3.864539,-3.636613 -7.109417,-7.913273 -9.331928,-12.684363 -2.421977,-5.186245 -3.475919,-10.453293 -3.29696,-15.550776 0.175562,-5.000625 1.539661,-9.83534 3.950448,-14.231568 2.399731,-4.376069 5.82863,-8.304315 10.117739,-11.512367 4.322491,-3.23302 9.488069,-5.711995 15.302227,-7.193732 6.606671,-1.6904013 13.405693,-1.9981213 19.994472,-1.2144919 6.841957,0.8137409 13.411139,2.7967239 19.344128,5.5946109 6.290997,2.966716 11.79388,6.810657 16.286869,11.132226 4.90752,4.720286 8.52195,9.91583 10.88653,15.201758 3.09244,6.882796 4.36663,12.376626 4.71855,16.742302 0.44439,5.512864 -0.56012,9.596973 -1.72504,12.502609 -0.0803,0.200353 -0.16192,0.396265 -0.2445,0.587796 -1.83351,4.252653 -4.56629,7.282526 -6.5182,9.165275 -2.19856,2.120648 -5.28526,4.56573 -9.660308,7.286472 -0.439994,0.273638 -0.906376,0.551992 -1.399401,0.834674 -3.395248,1.91983 -8.429998,3.991348 -15.328679,6.200323 -5.961127,1.908763 -12.465634,3.654062 -19.063083,5.317315 -6.979018,1.75944 -13.497263,3.28672 -18.421012,4.6345 -3.206522,0.87772 -5.729274,1.67508 -7.60186,2.4776 -1.628135,0.69776 -2.745025,1.3915 -3.398151,2.12945 -2.037777,2.30242 -0.174906,7.15226 -0.15958,8.41944 0.673366,1.06835 1.752158,6.1528 4.587701,7.04157 0.917499,0.28758 2.202336,0.29983 3.944733,0.0468 1.99683,-0.29 4.608476,-0.93092 7.839867,-1.89489 4.903748,-1.46285 11.539135,-3.77263 18.495454,-6.52177 6.566245,-2.59499 13.176008,-5.48475 19.194576,-8.51303 7.073492,-3.55908 12.223299,-6.74529 16.226783,-9.654913 0.52371,-0.3807 1.02242,-0.74651 1.50243,-1.10013 4.81294,-3.545673 8.16006,-6.852627 10.67321,-9.832698 2.1293,-2.524898 5.43962,-6.903605 7.54834,-12.726096 0.096,-0.265021 0.19056,-0.535812 0.28331,-0.812398 1.37474,-4.099215 2.37791,-9.531285 1.57852,-16.424417 -0.62639,-5.401361 -2.35698,-11.727379 -5.91842,-19.218064 -2.94632,-6.186595 -7.28341,-12.08188 -12.94336,-17.306859 C 99.446832,16.415077 93.209697,12.248517 86.181703,9.0893205 79.552408,6.1093452 72.237454,4.0379056 64.62575,3.26242 57.291671,2.5152191 49.686683,2.9762326 42.285881,4.9942776 35.73257,6.7867696 29.877081,9.7158313 24.96465,13.533018 c -4.873861,3.787215 -8.779233,8.41845 -11.492752,13.59197 -2.729963,5.204874 -4.2266277,10.906965 -4.3308422,16.775847 -0.1062954,5.986175 1.2360872,12.049542 4.0671932,17.890885 2.617408,5.389432 6.340451,10.110958 10.64905,14.048478 4.550863,4.158916 9.756728,7.449864 15.139696,9.843609 5.849017,2.600991 11.865734,4.13003 17.658752,4.688134 6.588321,0.634726 12.746226,0.0076 18.248125,-1.5465 1.873191,-0.530377 3.604082,-1.156634 5.193612,-1.841938 3.365325,-1.450911 6.225211,-3.218683 8.610686,-5.091481 4.221789,-3.314452 7.209127,-7.146587 9.189649,-10.925026 2.249371,-4.291348 3.409001,-8.894903 3.487861,-13.517046 0.0772,-4.522964 -0.87447,-9.474852 -3.361629,-14.518469 -1.871168,-3.798491 -4.667841,-7.637105 -8.536599,-11.134906 -0.823412,-0.744458 -1.698724,-1.476226 -2.626504,-2.188821 -2.789567,-2.142573 -5.974601,-4.053455 -9.484085,-5.588037 -4.282916,-1.872779 -9.066766,-3.19014 -14.091538,-3.621392 -4.715943,-0.404747 -9.669551,-0.02838 -14.525019,1.441672 -3.950646,1.199399 -7.541609,3.0933 -10.571585,5.580197 -2.917847,2.394864 -5.299533,5.329046 -6.928175,8.652873 -1.583965,3.232651 -2.446154,6.818468 -2.382361,10.56181 0.06253,3.668969 1.01482,7.452087 3.002481,11.141938 1.629813,3.016463 3.890889,5.734053 6.577905,8.039803 2.665517,2.287302 5.75513,4.173506 9.070981,5.542984 3.308689,1.366518 6.845643,2.219875 10.413528,2.440493 3.58069,0.221405 7.186587,-0.195137 10.6139,-1.365452 2.738079,-0.939288 5.401001,-2.367606 7.761861,-4.115048 0.614109,-0.454548 1.208643,-0.931298 1.779791,-1.427622 1.608434,-1.397718 3.090935,-3.002041 4.30289,-4.768724 1.555105,-2.2669 2.693162,-4.845714 3.000619,-7.578633 0.14933,-1.327419 0.101897,-2.68859 -0.190223,-4.056439 -0.287433,-1.345882 -0.809034,-2.68507 -1.597674,-3.992575 -1.141781,-1.889862 -2.684372,-3.607238 -4.503682,-5.062987 -1.785021,-1.42831 -3.840019,-2.60721 -6.038037,-3.43987 -2.17491,-0.823903 -4.495275,-1.310521 -6.824946,-1.355295 -2.325687,-0.0447 -4.657761,0.351371 -6.847487,1.288937 -1.525236,0.653995 -2.870015,1.583902 -3.959535,2.697855 -1.103925,1.128676 -1.948241,2.448661 -2.45525,3.869283 -0.519488,1.455595 -0.680027,3.003376 -0.418197,4.542146 0.270803,1.591396 0.983312,3.118507 2.129934,4.502491 0.69905,0.838095 1.592376,1.563998 2.539722,2.137103 1.011912,0.612167 2.107903,1.06492 3.188209,1.324865 1.178018,0.283464 2.337978,0.338834 3.398657,0.137083 0.57651,-0.109644 1.116487,-0.293783 1.610835,-0.55121 0.532747,-0.277417 0.998698,-0.632731 1.396055,-1.052493 0.14434,-0.161915 0.256705,-0.336982 0.343824,-0.505538 0.04513,-0.08731 0.08519,-0.176315 0.120642,-0.26589 0.109228,-0.275905 0.178772,-0.567118 0.21566,-0.852079 0.07952,-0.613841 0.01323,-1.23058 -0.171288,-1.744456 -0.102879,-0.286224 -0.241588,-0.539154 -0.410669,-0.749715 -0.188749,-0.235011 -0.40642,-0.406352 -0.638498,-0.518891 -0.2688,-0.130356 -0.543791,-0.174728 -0.798195,-0.171099 -0.335206,0.0049 -0.652792,0.09173 -0.907468,0.178356 z"
         sodipodi:nodetypes="cscsssssssssssc" />
    </clipPath>
  </defs>
  <g
     inkscape:label="Layer 1"
     inkscape:groupmode="layer"
     id="layer1">
    <g
       id="g13373">
      <path
         id="path1691"
         style="fill:#7f4740;fill-opacity:1;stroke:#000000;stroke-width:0.529167;stroke-linecap:butt;stroke-linejoin:round;stroke-miterlimit:4;stroke-dasharray:none;stroke-opacity:1"
         d="M 26.966535,8.4438505 0.62128624,17.104838 0.34531908,23.485039 11.337633,29.094234 33.472121,15.294124 33.342055,10.075812 Z" />
      <path
         style="fill:#ae6853;fill-opacity:1;stroke:none;stroke-width:0.264583px;stroke-linecap:butt;stroke-linejoin:miter;stroke-opacity:1"
         d="m 0.93377179,17.255262 10.57765521,3.911226 7.410085,-3.572671 0.415606,0.07854 -7.957269,4.032276 -10.57195092,-4.164417 z"
         id="path2776"
         sodipodi:nodetypes="ccccccc" />
      <path
         style="font-variation-settings:normal;vector-effect:none;fill:#9d6255;fill-opacity:1;stroke:none;stroke-width:0.264583px;stroke-linecap:butt;stroke-linejoin:miter;stroke-miterlimit:4;stroke-dasharray:none;stroke-dashoffset:0;stroke-opacity:1;-inkscape-stroke:none;stop-color:#000000"
         d="m 1.374907,17.072143 10.074652,3.700046 7.253857,-3.364887 -9.1551317,-2.850778 z"
         id="path5764" />
      <path
         style="font-variation-settings:normal;vector-effect:none;fill:#9d6255;fill-opacity:1;stroke:none;stroke-width:0.264583px;stroke-linecap:butt;stroke-linejoin:miter;stroke-miterlimit:4;stroke-dasharray:none;stroke-dashoffset:0;stroke-opacity:1;-inkscape-stroke:none;stop-color:#000000"
         d="M 29.026613,11.604882 29.806018,9.4813447 32.2148,10.129175 Z"
         id="path5916" />
      <path
         style="color:#000000;font-variation-settings:normal;vector-effect:none;fill:#000000;fill-opacity:0.422177;stroke:#000000;stroke-width:0.264583;stroke-linecap:butt;stroke-linejoin:round;stroke-miterlimit:4;stroke-dasharray:none;stroke-dashoffset:0;stroke-opacity:0.249579;-inkscape-stroke:none;stop-color:#000000"
         d="m 26.908094,8.2276044 -0.09435,0.00386 a 0.26086706,0.26086073 0 0 0 -0.07317,0.011549 L 0.88304707,16.741956 a 0.26086706,0.26086073 0 0 0 -0.0943494,0.05391 c -0.3860285,0.34758 -0.47748208,0.816528 -0.49100231,1.239991 -0.0135202,0.423465 0.0322502,0.832248 -0.0250314,1.153347 a 0.26086706,0.26086073 0 0 0 -0.003851,0.04237 c -0.0213215,1.309894 -0.18960428,2.678445 -0.11938095,4.016494 a 0.26086706,0.26086073 0 0 0 0.023106,0.09819 c 0.20855119,0.442741 0.59768375,0.684872 0.97237699,0.862603 0.3746935,0.177733 0.7507403,0.307261 1.0185891,0.492916 a 0.26086706,0.26086073 0 0 0 0.030808,0.01926 l 8.7610219,4.4709 a 0.26086706,0.26086073 0 0 0 0.103977,0.02696 c 0.509604,0.0311 0.932957,-0.187691 1.297786,-0.429376 0.364829,-0.241685 0.690737,-0.510483 1.012812,-0.658505 a 0.26086706,0.26086073 0 0 0 0.02888,-0.01541 L 33.356594,15.673324 a 0.26086706,0.26086073 0 0 0 0.07702,-0.07317 c 0.289553,-0.42296 0.317318,-0.901869 0.294602,-1.340116 -0.02271,-0.438246 -0.08991,-0.855829 -0.05392,-1.209184 a 0.26086706,0.26086073 0 0 0 0,-0.04428 c -0.05922,-0.838444 0.04131,-1.774423 -0.129007,-2.662901 a 0.26086706,0.26086073 0 0 0 -0.02888,-0.07895 C 33.267069,9.8219 32.831722,9.6426179 32.4285,9.5484648 32.025278,9.4543117 31.62614,9.4182344 31.340595,9.298156 A 0.26086706,0.26086073 0 0 0 31.296315,9.282753 C 29.870784,8.9560842 28.441365,8.4741126 26.960083,8.2314553 a 0.26086706,0.26086073 0 0 0 -0.05199,-0.00385 z M 26.89462,8.749402 c 1.418069,0.2344597 2.832713,0.7086023 4.286161,1.0416698 l -0.04237,-0.013478 c 0.396522,0.1667456 0.820283,0.1973667 1.170704,0.2791902 0.338111,0.07895 0.570372,0.192957 0.725914,0.446707 0.135135,0.768323 0.05715,1.65864 0.11938,2.539671 l 0.002,-0.04428 c -0.04603,0.451852 0.02949,0.891156 0.05007,1.288126 0.01999,0.385695 -0.01737,0.70749 -0.198327,0.987758 l -19.886556,12.397988 0.02888,-0.01541 c -0.411775,0.189247 -0.751265,0.479754 -1.08213,0.698939 C 11.747981,28.568512 11.452008,28.6977 11.121,28.68746 l -8.6897923,-4.43239 0.030808,0.01926 C 2.1078307,24.028868 1.7042958,23.896514 1.3682729,23.737124 1.0448154,23.583696 0.80870304,23.411621 0.67124216,23.14601 0.61405328,21.892105 0.76909967,20.561572 0.79062311,19.239268 l -0.005776,0.04237 c 0.0768864,-0.430995 0.0229118,-0.860511 0.034659,-1.22844 0.0113836,-0.356546 0.080298,-0.621223 0.31000539,-0.841422 L 26.869585,8.7513275 Z"
         id="path8729" />
      <path
         id="path1693"
         style="fill:#7f4740;fill-opacity:1;stroke:#000000;stroke-width:0.264584;stroke-linecap:butt;stroke-linejoin:round;stroke-miterlimit:4;stroke-dasharray:none;stroke-opacity:1"
         d="M 22.203274,4.8512747 9.4036016,7.7599544 9.1479926,13.978374 19.357081,17.212316 28.514325,12.141641 28.663056,6.4798413 Z" />
      <path
         style="fill:none;stroke:#000000;stroke-width:0.264583;stroke-linecap:butt;stroke-linejoin:round;stroke-miterlimit:4;stroke-dasharray:none;stroke-opacity:1"
         d="m 23.273458,15.818312 v 5.864907"
         id="path1888" />
      <path
         style="font-variation-settings:normal;vector-effect:none;fill:#ae6853;fill-opacity:1;stroke:none;stroke-width:0.264583px;stroke-linecap:butt;stroke-linejoin:miter;stroke-miterlimit:4;stroke-dasharray:none;stroke-dashoffset:0;stroke-opacity:1;-inkscape-stroke:none;stop-color:#000000"
         d="M 9.885514,7.969233 9.6140903,8.1929173 19.602908,10.797617 28.31653,6.8615199 28.301911,6.5941407 19.628622,10.365619 Z"
         id="path2990" />
      <path
         style="fill:#9d6255;fill-opacity:1;stroke:none;stroke-width:0.264583px;stroke-linecap:butt;stroke-linejoin:miter;stroke-opacity:1"
         d="M 19.519137,10.108693 27.850034,6.5631542 22.119304,5.120563 10.300488,7.7908145 Z"
         id="path3142" />
      <path
         style="color:#000000;fill:#000000;fill-opacity:0.422177;stroke:#000000;stroke-width:0.264583;stroke-linejoin:round;stroke-miterlimit:4;stroke-dasharray:none;stroke-opacity:0.249579"
         d="m 22.017326,4.6424117 a 0.26086706,0.26086073 0 0 0 -0.0905,0.00386 L 9.734567,7.4169889 A 0.26086706,0.26086073 0 0 0 9.6305901,7.4670506 C 9.2102883,7.7994305 9.0998337,8.2770973 9.0818227,8.7089676 9.0638119,9.1408377 9.1127387,9.5603298 9.0567913,9.8873445 a 0.26086706,0.26086073 0 0 0 -0.00386,0.032732 L 8.9046768,13.570735 a 0.26086706,0.26086073 0 0 0 0.02118,0.115527 c 0.2116977,0.491458 0.6434376,0.722393 1.0551735,0.852976 0.4117367,0.130584 0.8275437,0.193234 1.1283427,0.333103 a 0.26086706,0.26086073 0 0 0 0.03467,0.01347 c 2.668643,0.817683 5.33353,1.74257 8.025479,2.499237 a 0.26086706,0.26086073 0 0 0 0.119382,0.0059 c 0.967026,-0.178254 1.691362,-0.861515 2.439608,-1.195707 a 0.26086706,0.26086073 0 0 0 0.02117,-0.0096 l 6.629494,-3.669912 a 0.26086706,0.26086073 0 0 0 0.08087,-0.07124 c 0.311005,-0.407498 0.362293,-0.882046 0.361997,-1.320868 -2.97e-4,-0.438823 -0.04442,-0.860163 0.0096,-1.2111102 a 0.26086706,0.26086073 0 0 0 0.002,-0.044285 c -0.01636,-0.9806521 0.14321,-2.0537338 0.01541,-3.0807241 A 0.26086706,0.26086073 0 0 0 28.82213,6.6987947 C 28.586977,6.2415625 28.151604,6.0549053 27.747701,5.9594209 27.343797,5.8639363 26.941013,5.8288403 26.654017,5.7110376 A 0.26086706,0.26086073 0 0 0 26.61551,5.6994846 C 25.112426,5.3408717 23.595002,4.8437377 22.017326,4.6424117 Z m -0.02888,0.5237232 c 1.499406,0.1960381 2.986955,0.6773795 4.505669,1.0397443 l -0.03851,-0.011553 c 0.39828,0.1634807 0.823565,0.1913493 1.170704,0.2734142 0.334993,0.079194 0.559366,0.1901593 0.706659,0.4524813 0.100898,0.9110921 -0.03814,1.9408112 -0.02117,2.9574951 l 0.0039,-0.044285 c -0.06914,0.4488972 -0.01568,0.8925832 -0.0154,1.2900532 2.6e-4,0.385301 -0.0544,0.704146 -0.24839,0.974279 l -6.556325,3.631403 c -0.835503,0.378717 -1.520277,0.976977 -2.264387,1.130241 -2.632763,-0.743509 -5.258127,-1.650219 -7.900323,-2.460728 l -0.03467,-0.01155 C 10.90387,14.212742 10.481667,14.151173 10.138921,14.042471 9.797841,13.934297 9.5679949,13.793195 9.4284126,13.497568 l 0.146338,-3.5563108 -0.00386,0.034658 c 0.074843,-0.43746 0.017297,-0.8756361 0.032733,-1.2457679 0.014916,-0.3576707 0.089042,-0.6142499 0.3388879,-0.826019 z"
         id="path8731" />
      <path
         id="path11971"
         style="fill:none;fill-opacity:1;stroke:#000000;stroke-width:0.529167;stroke-linecap:butt;stroke-linejoin:round;stroke-miterlimit:4;stroke-dasharray:none;stroke-opacity:1"
         d="M 28.514325,12.141641 28.663056,6.4798413 22.203274,4.8512747 9.4036016,7.7599544 9.1479926,13.978374"
         sodipodi:nodetypes="ccccc" />
      <path
         style="font-variation-settings:normal;opacity:1;vector-effect:none;fill:#ae6853;fill-opacity:0.69574279;stroke:none;stroke-width:0.264583px;stroke-linecap:butt;stroke-linejoin:miter;stroke-miterlimit:4;stroke-dasharray:none;stroke-dashoffset:0;stroke-opacity:1;-inkscape-stroke:none;stop-color:#000000;stop-opacity:1"
         d="m 29.084401,11.92374 3.385293,-1.586718 0.197019,0.128793 -3.599329,1.804458 z"
         id="path12627"
         sodipodi:nodetypes="ccccc"
         inkscape:export-filename="../Resources/UI/Bricks.png"
         inkscape:export-xdpi="96.000008"
         inkscape:export-ydpi="96.000008" />
    </g>
  </g>
</svg>
