<?xml version="1.0" encoding="UTF-8" standalone="no"?>
<!-- Created with Inkscape (http://www.inkscape.org/) -->

<svg
   width="128"
   height="128"
   viewBox="0 0 33.866666 33.866668"
   version="1.1"
   id="svg5"
   sodipodi:docname="tools.svg"
   inkscape:export-filename="../Resources/UI/Tools.png"
   inkscape:export-xdpi="96.000008"
   inkscape:export-ydpi="96.000008"
   inkscape:version="1.1.2 (0a00cf5339, 2022-02-04)"
   xmlns:inkscape="http://www.inkscape.org/namespaces/inkscape"
   xmlns:sodipodi="http://sodipodi.sourceforge.net/DTD/sodipodi-0.dtd"
   xmlns:xlink="http://www.w3.org/1999/xlink"
   xmlns="http://www.w3.org/2000/svg"
   xmlns:svg="http://www.w3.org/2000/svg">
  <sodipodi:namedview
     id="namedview7"
     pagecolor="#505050"
     bordercolor="#eeeeee"
     borderopacity="1"
     inkscape:pageshadow="0"
     inkscape:pageopacity="0"
     inkscape:pagecheckerboard="0"
     inkscape:document-units="px"
     showgrid="false"
     units="px"
     width="128px"
     inkscape:snap-global="false"
     inkscape:zoom="3.8851995"
     inkscape:cx="27.154333"
     inkscape:cy="93.174108"
     inkscape:window-width="1920"
     inkscape:window-height="1056"
     inkscape:window-x="0"
     inkscape:window-y="0"
     inkscape:window-maximized="1"
     inkscape:current-layer="layer1" />
  <defs
     id="defs2">
    <linearGradient
       inkscape:collect="always"
       id="linearGradient12210">
      <stop
         style="stop-color:#3f474c;stop-opacity:0.49558267"
         offset="0"
         id="stop12206" />
      <stop
         style="stop-color:#4e585e;stop-opacity:0.41661662"
         offset="0.95001578"
         id="stop12504" />
      <stop
         style="stop-color:#727e87;stop-opacity:0.4466278"
         offset="1"
         id="stop12208" />
    </linearGradient>
    <linearGradient
       inkscape:collect="always"
       id="linearGradient6441">
      <stop
         style="stop-color:#a78668;stop-opacity:1"
         offset="0"
         id="stop6437" />
      <stop
         style="stop-color:#aa8663;stop-opacity:1"
         offset="0.15844195"
         id="stop7343" />
      <stop
         style="stop-color:#a57c54;stop-opacity:1"
         offset="0.61175734"
         id="stop7213" />
      <stop
         style="stop-color:#896847;stop-opacity:1"
         offset="1"
         id="stop6439" />
    </linearGradient>
    <inkscape:path-effect
       effect="powerstroke"
       id="path-effect4192"
       is_visible="true"
       lpeversion="1"
       offset_points="12.513608,1.2021403 | 8.9142123,0.55031373 | 7.6903642,0.57568169 | 4.6855891,0.36976071 | 0.91622864,0.24578299 | 13.946,2.1275978 | 12.972455,1.5077286"
       not_jump="false"
       sort_points="true"
       interpolator_type="CentripetalCatmullRom"
       interpolator_beta="0.2"
       start_linecap_type="zerowidth"
       linejoin_type="round"
       miter_limit="4"
       scale_width="1"
       end_linecap_type="zerowidth" />
    <inkscape:path-effect
       effect="powerstroke"
       id="path-effect4186"
       is_visible="true"
       lpeversion="1"
       offset_points="12.513608,1.2021403 | 8.9142123,0.55031373 | 7.6903642,0.57568169 | 4.6855891,0.36976071 | 0.91622864,0.24578299 | 13.946,2.1275978 | 12.972455,1.5077286"
       not_jump="false"
       sort_points="true"
       interpolator_type="CentripetalCatmullRom"
       interpolator_beta="0.2"
       start_linecap_type="zerowidth"
       linejoin_type="round"
       miter_limit="4"
       scale_width="1"
       end_linecap_type="zerowidth" />
    <inkscape:path-effect
       effect="powerstroke"
       id="path-effect3735"
       is_visible="true"
       lpeversion="1"
       offset_points="12.513608,1.2021403 | 8.9142123,0.55031373 | 7.6903642,0.57568169 | 4.6855891,0.36976071 | 0.91622864,0.24578299 | 13.946,2.1275978 | 12.972455,1.5077286"
       not_jump="false"
       sort_points="true"
       interpolator_type="CentripetalCatmullRom"
       interpolator_beta="0.2"
       start_linecap_type="zerowidth"
       linejoin_type="round"
       miter_limit="4"
       scale_width="1"
       end_linecap_type="zerowidth" />
    <inkscape:path-effect
       effect="powerstroke"
       id="path-effect3103"
       is_visible="true"
       lpeversion="1"
       offset_points="12.513608,1.2021403 | 8.9142123,0.55031373 | 7.6903642,0.57568169 | 4.6855891,0.36976071 | 0.91622864,0.24578299 | 13.946,2.1275978 | 12.972455,1.5077286"
       not_jump="false"
       sort_points="true"
       interpolator_type="CentripetalCatmullRom"
       interpolator_beta="0.2"
       start_linecap_type="zerowidth"
       linejoin_type="round"
       miter_limit="4"
       scale_width="1"
       end_linecap_type="zerowidth" />
    <inkscape:path-effect
       effect="powerstroke"
       id="path-effect1102"
       is_visible="true"
       lpeversion="1"
       offset_points="12.513608,1.2021403 | 8.9142123,0.55031373 | 7.6903642,0.57568169 | 4.6855891,0.36976071 | 0.91622864,0.24578299 | 13.946,2.1275978 | 12.972455,1.5077286"
       not_jump="false"
       sort_points="true"
       interpolator_type="CentripetalCatmullRom"
       interpolator_beta="0.2"
       start_linecap_type="zerowidth"
       linejoin_type="round"
       miter_limit="4"
       scale_width="1"
       end_linecap_type="zerowidth" />
    <clipPath
       clipPathUnits="userSpaceOnUse"
       id="clipPath4886">
      <path
         id="path4888"
         style="fill:none;fill-opacity:1;fill-rule:nonzero;stroke:#fe0000;stroke-width:0.377953;stroke-miterlimit:4;stroke-dasharray:none;stroke-opacity:1"
         d="m 62.58453,48.904198 c 0.27704,-0.02306 0.584402,-6.92e-4 0.857979,0.110551 0.204057,0.08296 0.367597,0.206475 0.487506,0.366198 0.100952,0.134476 0.169663,0.292649 0.210936,0.471266 0.03742,0.161159 0.05299,0.34337 0.04592,0.541058 -0.01285,0.359698 -0.102576,0.767819 -0.262715,1.129927 -0.07385,0.16698 -0.158211,0.313248 -0.245442,0.427046 -0.02759,0.03628 -0.05514,0.06826 -0.0816,0.09581 -0.05227,0.05446 -0.0997,0.08984 -0.134022,0.103483 -0.27481,0.244573 -0.582773,0.441566 -0.925811,0.589776 -0.319256,0.137915 -0.673969,0.23573 -1.065131,0.287282 -0.72339,0.09532 -1.566607,0.03061 -2.482636,-0.223975 -0.839811,-0.233461 -1.707643,-0.618723 -2.510736,-1.131488 -0.756703,-0.483145 -1.423552,-1.059768 -1.911073,-1.66797 -0.886798,-1.094011 -1.388269,-2.237189 -1.57053,-3.371369 -0.176692,-1.099612 -0.05718,-2.217369 0.334904,-3.293144 0.384443,-1.054775 1.030855,-2.066298 1.904164,-2.950663 0.861445,-0.872349 1.933561,-1.610082 3.15891,-2.129945 1.826805,-0.776564 3.796986,-1.113086 5.800249,-1.069289 2.009858,0.04396 4.039321,0.470676 5.963081,1.206252 1.944098,0.743346 3.75953,1.794002 5.32772,3.05954 1.599153,1.290519 2.920642,2.787174 3.877183,4.392374 0.636223,1.065796 1.041438,2.133558 1.259751,3.186924 0.222085,1.071602 0.253984,2.144001 0.126954,3.203686 -0.262715,2.191125 -1.207827,4.34815 -2.59497,6.330221 -1.077173,1.539156 -2.409861,2.957624 -3.878385,4.204547 -0.520188,0.441691 -1.062361,0.866181 -1.622929,1.270794 -2.162397,1.56079 -4.581404,2.813224 -7.028739,3.613025 -3.042345,0.999605 -6.258534,1.33553 -9.474553,1.094562 -3.207039,-0.240302 -6.396794,-1.053256 -9.382054,-2.335272 -2.993049,-1.285356 -5.757936,-3.032428 -8.116521,-5.118523 -2.378695,-2.103885 -4.321834,-4.532198 -5.686359,-7.157412 -1.68788,-3.235072 -2.435406,-6.47201 -2.440986,-9.541395 -0.0057,-3.135466 0.76186,-6.128841 2.136214,-8.829677 1.415086,-2.78088 3.473637,-5.253995 6.013048,-7.281546 2.636539,-2.105097 5.774035,-3.717719 9.252897,-4.731946 4.313563,-1.261877 8.737262,-1.565412 12.98298,-1.166785 4.526071,0.424949 8.85081,1.645563 12.732302,3.369552 3.178628,1.411809 6.054006,3.156876 8.562795,5.097044 0.833919,0.644909 1.619313,1.304769 2.356861,1.973513 3.46399,3.140855 5.940072,6.533174 7.590614,9.826043 2.204508,4.40366 3.060382,8.675146 3.035758,12.544807 -0.02532,3.962208 -0.97621,7.940538 -2.912451,11.68006 -1.705028,3.292973 -4.320215,6.66904 -8.083185,9.5928 -2.1257,1.651634 -4.689724,3.212167 -7.723487,4.483744 -1.432868,0.600574 -2.996666,1.148024 -4.692397,1.608268 -5.005495,1.362332 -10.632649,1.880252 -16.674023,1.227029 -5.316159,-0.57481 -10.841734,-2.05033 -16.201264,-4.518097 -4.935339,-2.272448 -9.6598,-5.358595 -13.739922,-9.198077 -3.864539,-3.636613 -7.109417,-7.913273 -9.331928,-12.684363 -2.421977,-5.186245 -3.475919,-10.453293 -3.29696,-15.550776 0.175562,-5.000625 1.539661,-9.83534 3.950448,-14.231568 2.399731,-4.376069 5.82863,-8.304315 10.117739,-11.512367 4.322491,-3.23302 9.488069,-5.711995 15.302227,-7.1937319 6.606671,-1.6904014 13.405693,-1.9981214 19.994472,-1.214492 6.841957,0.813741 13.411139,2.7967239 19.344128,5.5946109 6.290997,2.966716 11.79388,6.810657 16.286869,11.132226 4.90752,4.720286 8.52195,9.91583 10.88653,15.201757 3.09244,6.882797 4.36663,12.376627 4.71855,16.742303 0.44439,5.512864 -0.56012,9.596973 -1.72504,12.502609 -0.0803,0.200353 -0.16192,0.396265 -0.2445,0.587796 -1.83351,4.252653 -4.56629,7.282526 -6.5182,9.165275 -2.19856,2.120648 -5.285259,4.56573 -9.660308,7.286472 -0.439994,0.273638 -0.906376,0.551992 -1.399401,0.834674 -3.395248,1.91983 -8.429998,3.991348 -15.328679,6.200323 -5.961127,1.908763 -12.465634,3.654062 -19.063083,5.317316 -6.979018,1.759439 -13.497263,3.286719 -18.421012,4.634499 -3.206522,0.87772 -5.729274,1.67508 -7.60186,2.4776 -1.628135,0.69776 -2.745025,1.3915 -3.398151,2.12945 -2.037777,2.30242 -0.174906,7.15226 -0.15958,8.41944 0.673366,1.06835 1.752158,6.1528 4.587701,7.04157 0.917499,0.28758 2.202336,0.29983 3.944732,0.0468 1.99683,-0.29 4.608477,-0.93092 7.839868,-1.89489 4.903748,-1.46285 11.539135,-3.77263 18.495454,-6.52177 6.566245,-2.59499 13.176008,-5.48475 19.194576,-8.51303 7.073492,-3.55908 12.223299,-6.745289 16.226784,-9.654913 0.523709,-0.3807 1.022419,-0.74651 1.502429,-1.10013 4.81294,-3.545673 8.16006,-6.852627 10.67321,-9.832698 2.1293,-2.524898 5.43962,-6.903605 7.54834,-12.726096 0.096,-0.265021 0.19056,-0.535812 0.28331,-0.812398 1.37474,-4.099215 2.37791,-9.531285 1.57852,-16.424417 -0.62639,-5.401361 -2.35698,-11.727379 -5.91842,-19.218064 -2.94632,-6.186595 -7.28341,-12.08188 -12.94336,-17.306859 C 97.446832,14.415077 91.209697,10.248517 84.181703,7.0893205 77.552408,4.1093451 70.237454,2.0379055 62.62575,1.26242 55.291671,0.51521909 47.686683,0.9762326 40.28588,2.9942775 33.73257,4.7867695 27.877081,7.7158313 22.96465,11.533018 18.090789,15.320233 14.185417,19.951468 11.471898,25.124988 8.7419351,30.329862 7.2452703,36.031953 7.1410558,41.900835 7.0347604,47.88701 8.3771431,53.950377 11.208249,59.79172 c 2.617408,5.389432 6.340451,10.110958 10.64905,14.048478 4.550863,4.158916 9.756728,7.449864 15.139696,9.843609 5.849017,2.600991 11.865734,4.13003 17.658752,4.688134 6.588321,0.634726 12.746226,0.0076 18.248125,-1.5465 1.873191,-0.530377 3.604082,-1.156634 5.193612,-1.841938 3.365325,-1.450911 6.225211,-3.218683 8.610686,-5.091481 4.221789,-3.314452 7.209127,-7.146587 9.189649,-10.925026 2.249372,-4.291348 3.409002,-8.894903 3.487862,-13.517046 0.0772,-4.522964 -0.87447,-9.474852 -3.36163,-14.518469 -1.871168,-3.798491 -4.667841,-7.637105 -8.536599,-11.134906 -0.823412,-0.744458 -1.698724,-1.476226 -2.626504,-2.188821 -2.789567,-2.142573 -5.974601,-4.053455 -9.484085,-5.588037 -4.282916,-1.872779 -9.066766,-3.19014 -14.091538,-3.621392 -4.715943,-0.404747 -9.669551,-0.02838 -14.525019,1.441672 -3.950646,1.199399 -7.54161,3.0933 -10.571585,5.580197 -2.917847,2.394864 -5.299533,5.329046 -6.928175,8.652873 -1.583965,3.232651 -2.446154,6.818468 -2.382361,10.56181 0.06253,3.668969 1.01482,7.452087 3.002481,11.141938 1.629813,3.016463 3.890889,5.734053 6.577905,8.039803 2.665516,2.287302 5.75513,4.173506 9.070981,5.542984 3.308689,1.366518 6.845643,2.219875 10.413528,2.440493 3.58069,0.221405 7.186587,-0.195137 10.6139,-1.365452 2.738079,-0.939288 5.401001,-2.367606 7.761861,-4.115048 0.614109,-0.454548 1.208643,-0.931298 1.779791,-1.427622 1.608434,-1.397718 3.090935,-3.002041 4.30289,-4.768724 1.555105,-2.2669 2.693162,-4.845714 3.000619,-7.578633 0.14933,-1.327419 0.101897,-2.68859 -0.190223,-4.056439 -0.287433,-1.345882 -0.809034,-2.68507 -1.597674,-3.992575 -1.141781,-1.889862 -2.684372,-3.607238 -4.503682,-5.062988 -1.785021,-1.42831 -3.840019,-2.607209 -6.038037,-3.439869 -2.17491,-0.823903 -4.495275,-1.310521 -6.824946,-1.355295 -2.325687,-0.0447 -4.657761,0.351371 -6.847487,1.288937 -1.525236,0.653995 -2.870015,1.583902 -3.959535,2.697854 -1.103925,1.128676 -1.948241,2.448662 -2.45525,3.869284 -0.519488,1.455595 -0.680027,3.003376 -0.418197,4.542146 0.270803,1.591396 0.983312,3.118507 2.129934,4.502491 0.69905,0.838095 1.592376,1.563998 2.539722,2.137103 1.011912,0.612167 2.107903,1.06492 3.188209,1.324865 1.178018,0.283464 2.337978,0.338834 3.398657,0.137083 0.57651,-0.109644 1.116487,-0.293783 1.610835,-0.55121 0.532747,-0.277417 0.998698,-0.632731 1.396055,-1.052493 0.14434,-0.161915 0.256705,-0.336982 0.343824,-0.505538 0.04513,-0.08731 0.08519,-0.176315 0.120642,-0.26589 0.109228,-0.275905 0.178772,-0.567118 0.21566,-0.852079 0.07952,-0.613841 0.01323,-1.23058 -0.171288,-1.744456 -0.102879,-0.286224 -0.241588,-0.539154 -0.410669,-0.749715 -0.188749,-0.235011 -0.40642,-0.406352 -0.638498,-0.518891 -0.2688,-0.130356 -0.543791,-0.174728 -0.798195,-0.171099 -0.335206,0.0049 -0.652792,0.09173 -0.907468,0.178356 z"
         sodipodi:nodetypes="cscsssssssssssc" />
    </clipPath>
    <clipPath
       clipPathUnits="userSpaceOnUse"
       id="clipPath5665">
      <path
         id="path5667"
         style="fill:none;fill-opacity:1;fill-rule:nonzero;stroke:#fe0000;stroke-width:0.377953;stroke-miterlimit:4;stroke-dasharray:none;stroke-opacity:1"
         d="m 64.58453,50.904198 c 0.27704,-0.02306 0.584402,-6.92e-4 0.857979,0.110551 0.204057,0.08296 0.367597,0.206475 0.487506,0.366198 0.100952,0.134476 0.169663,0.292649 0.210936,0.471266 0.03742,0.161159 0.05299,0.34337 0.04592,0.541058 -0.01285,0.359698 -0.102576,0.767819 -0.262715,1.129927 -0.07385,0.16698 -0.158211,0.313248 -0.245442,0.427046 -0.02759,0.03628 -0.05514,0.06826 -0.0816,0.09581 -0.05227,0.05446 -0.0997,0.08984 -0.134022,0.103483 -0.27481,0.244573 -0.582773,0.441566 -0.925811,0.589776 -0.319256,0.137915 -0.673969,0.23573 -1.065131,0.287282 -0.72339,0.09532 -1.566607,0.03061 -2.482636,-0.223975 -0.839811,-0.233461 -1.707643,-0.618723 -2.510736,-1.131488 -0.756703,-0.483145 -1.423552,-1.059768 -1.911073,-1.66797 -0.886798,-1.094011 -1.388269,-2.237189 -1.57053,-3.371369 -0.176692,-1.099612 -0.05718,-2.217369 0.334904,-3.293144 0.384443,-1.054775 1.030855,-2.066298 1.904164,-2.950662 0.861445,-0.872349 1.933561,-1.610082 3.15891,-2.129945 1.826805,-0.776565 3.796986,-1.113087 5.800249,-1.06929 2.009858,0.04396 4.039321,0.470676 5.963081,1.206253 1.944098,0.743346 3.75953,1.794002 5.32772,3.059539 1.599153,1.290519 2.920642,2.787174 3.877183,4.392374 0.636223,1.065796 1.041438,2.133558 1.259751,3.186924 0.222085,1.071602 0.253984,2.144001 0.126954,3.203686 -0.262715,2.191125 -1.207827,4.34815 -2.59497,6.330221 -1.077173,1.539156 -2.409861,2.957624 -3.878385,4.204547 -0.520188,0.441691 -1.062361,0.866181 -1.622929,1.270794 -2.162397,1.56079 -4.581404,2.813224 -7.028739,3.613025 -3.042345,0.999605 -6.258534,1.33553 -9.474553,1.094562 -3.207039,-0.240302 -6.396794,-1.053256 -9.382054,-2.335272 -2.993049,-1.285356 -5.757936,-3.032428 -8.11652,-5.118523 -2.378696,-2.103885 -4.321835,-4.532198 -5.68636,-7.157412 -1.68788,-3.235072 -2.435406,-6.47201 -2.440986,-9.541395 -0.0057,-3.135466 0.76186,-6.12884 2.136214,-8.829677 1.415086,-2.78088 3.473637,-5.253995 6.013049,-7.281546 2.636538,-2.105097 5.774034,-3.717719 9.252896,-4.731946 4.313563,-1.261877 8.737262,-1.565412 12.98298,-1.166785 4.526071,0.424949 8.85081,1.645563 12.732302,3.369552 3.178628,1.411809 6.054006,3.156876 8.562795,5.097044 0.833919,0.644909 1.619313,1.304769 2.356861,1.973513 3.46399,3.140855 5.940072,6.533175 7.590614,9.826043 2.204508,4.40366 3.060382,8.675146 3.035758,12.544807 -0.02532,3.962208 -0.97621,7.940538 -2.912451,11.68006 -1.705028,3.292973 -4.320215,6.66904 -8.083185,9.5928 -2.1257,1.651634 -4.689724,3.212167 -7.723487,4.483744 -1.432868,0.600574 -2.996666,1.148024 -4.692397,1.608268 -5.005495,1.362332 -10.632649,1.880252 -16.674023,1.227029 -5.316159,-0.57481 -10.841734,-2.05033 -16.201263,-4.518097 -4.93534,-2.272448 -9.659801,-5.358595 -13.739923,-9.198077 -3.864539,-3.636613 -7.109417,-7.913273 -9.331928,-12.684363 -2.421977,-5.186245 -3.475919,-10.453293 -3.29696,-15.550776 0.175562,-5.000625 1.539661,-9.83534 3.950448,-14.231568 2.399731,-4.376069 5.82863,-8.304315 10.117739,-11.512367 4.322491,-3.23302 9.488069,-5.711995 15.302227,-7.193732 6.606671,-1.6904013 13.405693,-1.9981213 19.994472,-1.2144919 6.841957,0.8137409 13.411139,2.7967239 19.344128,5.5946109 6.290997,2.966716 11.79388,6.810657 16.286869,11.132226 4.90752,4.720286 8.52195,9.91583 10.88653,15.201758 3.09244,6.882796 4.36663,12.376626 4.71855,16.742302 0.44439,5.512864 -0.56012,9.596973 -1.72504,12.502609 -0.0803,0.200353 -0.16192,0.396265 -0.2445,0.587796 -1.83351,4.252653 -4.56629,7.282526 -6.5182,9.165275 -2.19856,2.120648 -5.28526,4.56573 -9.660308,7.286472 -0.439994,0.273638 -0.906376,0.551992 -1.399401,0.834674 -3.395248,1.91983 -8.429998,3.991348 -15.328679,6.200323 -5.961127,1.908763 -12.465634,3.654062 -19.063083,5.317315 -6.979018,1.75944 -13.497263,3.28672 -18.421012,4.6345 -3.206522,0.87772 -5.729274,1.67508 -7.60186,2.4776 -1.628135,0.69776 -2.745025,1.3915 -3.398151,2.12945 -2.037777,2.30242 -0.174906,7.15226 -0.15958,8.41944 0.673366,1.06835 1.752158,6.1528 4.587701,7.04157 0.917499,0.28758 2.202336,0.29983 3.944733,0.0468 1.99683,-0.29 4.608476,-0.93092 7.839867,-1.89489 4.903748,-1.46285 11.539135,-3.77263 18.495454,-6.52177 6.566245,-2.59499 13.176008,-5.48475 19.194576,-8.51303 7.073492,-3.55908 12.223299,-6.74529 16.226783,-9.654913 0.52371,-0.3807 1.02242,-0.74651 1.50243,-1.10013 4.81294,-3.545673 8.16006,-6.852627 10.67321,-9.832698 2.1293,-2.524898 5.43962,-6.903605 7.54834,-12.726096 0.096,-0.265021 0.19056,-0.535812 0.28331,-0.812398 1.37474,-4.099215 2.37791,-9.531285 1.57852,-16.424417 -0.62639,-5.401361 -2.35698,-11.727379 -5.91842,-19.218064 -2.94632,-6.186595 -7.28341,-12.08188 -12.94336,-17.306859 C 99.446832,16.415077 93.209697,12.248517 86.181703,9.0893205 79.552408,6.1093452 72.237454,4.0379056 64.62575,3.26242 57.291671,2.5152191 49.686683,2.9762326 42.285881,4.9942776 35.73257,6.7867696 29.877081,9.7158313 24.96465,13.533018 c -4.873861,3.787215 -8.779233,8.41845 -11.492752,13.59197 -2.729963,5.204874 -4.2266277,10.906965 -4.3308422,16.775847 -0.1062954,5.986175 1.2360872,12.049542 4.0671932,17.890885 2.617408,5.389432 6.340451,10.110958 10.64905,14.048478 4.550863,4.158916 9.756728,7.449864 15.139696,9.843609 5.849017,2.600991 11.865734,4.13003 17.658752,4.688134 6.588321,0.634726 12.746226,0.0076 18.248125,-1.5465 1.873191,-0.530377 3.604082,-1.156634 5.193612,-1.841938 3.365325,-1.450911 6.225211,-3.218683 8.610686,-5.091481 4.221789,-3.314452 7.209127,-7.146587 9.189649,-10.925026 2.249371,-4.291348 3.409001,-8.894903 3.487861,-13.517046 0.0772,-4.522964 -0.87447,-9.474852 -3.361629,-14.518469 -1.871168,-3.798491 -4.667841,-7.637105 -8.536599,-11.134906 -0.823412,-0.744458 -1.698724,-1.476226 -2.626504,-2.188821 -2.789567,-2.142573 -5.974601,-4.053455 -9.484085,-5.588037 -4.282916,-1.872779 -9.066766,-3.19014 -14.091538,-3.621392 -4.715943,-0.404747 -9.669551,-0.02838 -14.525019,1.441672 -3.950646,1.199399 -7.541609,3.0933 -10.571585,5.580197 -2.917847,2.394864 -5.299533,5.329046 -6.928175,8.652873 -1.583965,3.232651 -2.446154,6.818468 -2.382361,10.56181 0.06253,3.668969 1.01482,7.452087 3.002481,11.141938 1.629813,3.016463 3.890889,5.734053 6.577905,8.039803 2.665517,2.287302 5.75513,4.173506 9.070981,5.542984 3.308689,1.366518 6.845643,2.219875 10.413528,2.440493 3.58069,0.221405 7.186587,-0.195137 10.6139,-1.365452 2.738079,-0.939288 5.401001,-2.367606 7.761861,-4.115048 0.614109,-0.454548 1.208643,-0.931298 1.779791,-1.427622 1.608434,-1.397718 3.090935,-3.002041 4.30289,-4.768724 1.555105,-2.2669 2.693162,-4.845714 3.000619,-7.578633 0.14933,-1.327419 0.101897,-2.68859 -0.190223,-4.056439 -0.287433,-1.345882 -0.809034,-2.68507 -1.597674,-3.992575 -1.141781,-1.889862 -2.684372,-3.607238 -4.503682,-5.062987 -1.785021,-1.42831 -3.840019,-2.60721 -6.038037,-3.43987 -2.17491,-0.823903 -4.495275,-1.310521 -6.824946,-1.355295 -2.325687,-0.0447 -4.657761,0.351371 -6.847487,1.288937 -1.525236,0.653995 -2.870015,1.583902 -3.959535,2.697855 -1.103925,1.128676 -1.948241,2.448661 -2.45525,3.869283 -0.519488,1.455595 -0.680027,3.003376 -0.418197,4.542146 0.270803,1.591396 0.983312,3.118507 2.129934,4.502491 0.69905,0.838095 1.592376,1.563998 2.539722,2.137103 1.011912,0.612167 2.107903,1.06492 3.188209,1.324865 1.178018,0.283464 2.337978,0.338834 3.398657,0.137083 0.57651,-0.109644 1.116487,-0.293783 1.610835,-0.55121 0.532747,-0.277417 0.998698,-0.632731 1.396055,-1.052493 0.14434,-0.161915 0.256705,-0.336982 0.343824,-0.505538 0.04513,-0.08731 0.08519,-0.176315 0.120642,-0.26589 0.109228,-0.275905 0.178772,-0.567118 0.21566,-0.852079 0.07952,-0.613841 0.01323,-1.23058 -0.171288,-1.744456 -0.102879,-0.286224 -0.241588,-0.539154 -0.410669,-0.749715 -0.188749,-0.235011 -0.40642,-0.406352 -0.638498,-0.518891 -0.2688,-0.130356 -0.543791,-0.174728 -0.798195,-0.171099 -0.335206,0.0049 -0.652792,0.09173 -0.907468,0.178356 z"
         sodipodi:nodetypes="cscsssssssssssc" />
    </clipPath>
    <filter
       inkscape:collect="always"
       style="color-interpolation-filters:sRGB"
       id="filter5474"
       x="-0.082419615"
       y="-0.051749178"
       width="1.1648392"
       height="1.1034984">
      <feGaussianBlur
         inkscape:collect="always"
         stdDeviation="0.57317528"
         id="feGaussianBlur5476" />
    </filter>
    <mask
       maskUnits="userSpaceOnUse"
       id="mask5633">
      <path
         style="font-variation-settings:normal;opacity:1;vector-effect:none;fill:#a18060;fill-opacity:1;stroke:#4e3b31;stroke-width:0.264583px;stroke-linecap:butt;stroke-linejoin:miter;stroke-miterlimit:4;stroke-dasharray:none;stroke-dashoffset:0;stroke-opacity:1;-inkscape-stroke:none;stop-color:#000000;stop-opacity:1"
         d="M 7.2289226,9.5540836 C 14.670761,16.248248 25.347481,32.107796 25.781619,32.602779 c 0.434139,0.49498 2.252851,0.959059 3.470318,0.08691 1.217464,-0.872154 2.207326,-2.259229 1.61213,-3.166205 C 30.268873,28.616505 13.815564,10.85967 11.877386,6.8303389 Z"
         id="path5635" />
    </mask>
    <linearGradient
       inkscape:collect="always"
       xlink:href="#linearGradient6441"
       id="linearGradient6443"
       x1="22.190683"
       y1="20.388533"
       x2="19.418011"
       y2="22.734806"
       gradientUnits="userSpaceOnUse"
       gradientTransform="translate(1.1750273,0.32060811)" />
    <linearGradient
       inkscape:collect="always"
       xlink:href="#linearGradient12210"
       id="linearGradient12212"
       x1="11.340516"
       y1="9.971941"
       x2="8.5981236"
       y2="7.9771428"
       gradientUnits="userSpaceOnUse"
       gradientTransform="translate(1.3502005,0.09419987)" />
  </defs>
  <g
     inkscape:label="Layer 1"
     inkscape:groupmode="layer"
     id="layer1">
    <path
       id="path18970"
       style="font-variation-settings:normal;fill:none;fill-opacity:1;stroke:#000000;stroke-width:0.52916667;stroke-linecap:butt;stroke-linejoin:round;stroke-miterlimit:4;stroke-dasharray:none;stroke-dashoffset:0;stroke-opacity:1;stop-color:#000000"
       d="M 10.699501,0.3675682 9.973447,0.53086573 1.7408743,9.9850691 l -0.087333,0.8288899 1.4789795,3.585311 0.6583578,0.658875 5.0560221,0.03876 1.0764203,-0.433049 1.424719,-1.866552 c 1.947068,2.08571 3.982752,4.526574 5.918502,6.975802 -0.563049,0.907015 -1.021209,1.61615 -1.324984,1.984891 -1.046134,1.269866 -2.301692,0.34394 -3.619417,1.140499 -1.317725,0.796559 -2.6913087,3.364136 -2.6913087,3.364136 l 6.9918217,5.008479 c 0,0 2.246291,-2.493801 2.667537,-3.769278 0.528312,-1.599655 -1.299064,-2.276574 -0.378271,-3.943429 0.170443,-0.308542 0.360465,-0.59689 0.58446,-0.907955 4.046572,5.320813 7.227152,10.007266 7.46001,10.272757 0.434139,0.494983 2.253124,0.959485 3.470588,0.08733 1.217467,-0.872151 2.207504,-2.259238 1.612305,-3.166213 -0.313875,-0.478301 -5.037497,-5.644865 -9.717235,-11.010699 0.90411,-1.299316 2.036259,-3.017518 3.485575,-5.39812 l -0.104903,-0.936377 -2.214852,-1.415935 -0.769979,0.271819 c -1.03662,1.39752 -2.063892,2.963505 -3.005501,4.458125 -2.220374,-2.603643 -4.219189,-5.044675 -5.477185,-6.7990678 l 2.57452,-3.3739543 0.264066,-0.888835 -1.813843,-3.90312086 -0.710034,-0.44751793 z" />
    <path
       style="font-variation-settings:normal;fill:url(#linearGradient6443);fill-opacity:1;stroke:#4e3b31;stroke-width:0.264583;stroke-linecap:butt;stroke-linejoin:miter;stroke-miterlimit:4;stroke-dasharray:none;stroke-dashoffset:0;stroke-opacity:1;stop-color:#000000"
       d="M 8.4039498,9.8746918 C 15.845788,16.568856 26.522508,32.428404 26.956646,32.923386 c 0.434139,0.49498 2.252851,0.95906 3.470317,0.08691 1.217465,-0.872153 2.207327,-2.259227 1.61213,-3.166203 C 31.4439,28.937114 14.990591,11.180278 13.052414,7.150947 Z"
       id="path1072" />
    <path
       style="font-variation-settings:normal;fill:#262b2e;fill-opacity:0.747448;stroke:none;stroke-width:0.264583;stroke-linecap:butt;stroke-linejoin:miter;stroke-miterlimit:4;stroke-dasharray:none;stroke-dashoffset:0;stroke-opacity:1;filter:url(#filter5474);stop-color:#000000"
       d="M 16.004544,32.742938 9.0126058,27.734805 c 0,0 1.3736612,-2.567648 2.6913852,-3.364207 1.317725,-0.796559 2.573603,0.129329 3.619737,-1.140537 1.046134,-1.269865 3.880356,-7.027874 6.776406,-10.932186 l 0.769773,-0.271875 2.214748,1.416175 0.104869,0.936293 c -5.179513,6.765387 -5.974725,8.984967 -6.895518,10.651823 -0.920793,1.666855 0.906694,2.343808 0.378382,3.943463 -0.421246,1.275476 -2.667843,3.769184 -2.667844,3.769184 z M 8.4990723,13.54128 C 12.109346,15.241287 11.183896,8.7984217 15.761792,7.6244047 15.52992,6.238319 9.9579519,3.3439725 8.4990723,13.54128 Z"
       id="path5436"
       sodipodi:nodetypes="ccssccccsscccc"
       mask="url(#mask5633)"
       transform="translate(1.3502005,0.09419987)" />
    <path
       style="fill:#5e6470;fill-opacity:1;stroke:#20262a;stroke-width:0.264583;stroke-linecap:butt;stroke-linejoin:miter;stroke-miterlimit:4;stroke-dasharray:none;stroke-opacity:1"
       d="m 1.7408625,9.9852629 8.232542,-9.45431155 0.7263485,-0.1635049 3.850383,0.03334 0.709574,0.4473457 L 17.073674,4.7513345 16.809602,5.64022 9.9233285,14.663699 8.8471405,15.096906 3.7908967,15.058166 3.1326923,14.399361 1.6532857,10.81384 Z"
       id="path1074" />
    <rect
       style="fill:#91755b;fill-opacity:1;stroke:#4e3b31;stroke-width:0.283407;stroke-miterlimit:4;stroke-dasharray:none;stroke-opacity:1;stop-color:#000000"
       id="rect1178"
       width="4.8515821"
       height="1.7046231"
       x="-6.1808424"
       y="9.9605103"
       rx="1.0618194"
       ry="0.68906283"
       transform="matrix(0.65938024,-0.75180962,0.97852934,0.20610759,0,0)" />
    <path
       style="font-variation-settings:normal;fill:#5e6970;fill-opacity:1;stroke:#20272a;stroke-width:0.264583;stroke-linecap:butt;stroke-linejoin:miter;stroke-miterlimit:4;stroke-dasharray:none;stroke-dashoffset:0;stroke-opacity:1;stop-color:#000000"
       d="M 16.622523,31.270851 9.6305842,26.262718 c 0,0 1.3736608,-2.567648 2.6913858,-3.364207 1.317724,-0.796559 2.573603,0.129329 3.619737,-1.140537 1.046133,-1.269865 3.880355,-6.498707 6.776405,-10.403019 l 0.769773,-0.271875 2.214748,1.416175 0.10487,0.936293 c -4.501654,7.394279 -5.974725,8.4558 -6.895518,10.122656 -0.920793,1.666855 0.906694,2.343808 0.378381,3.943463 -0.421246,1.275476 -2.667842,3.769184 -2.667842,3.769184 z"
       id="path2554"
       sodipodi:nodetypes="ccssccccsscc" />
    <path
       id="path3335"
       style="fill:#7c8991;fill-opacity:1;stroke:#fdfdfd;stroke-width:0.264583;stroke-linecap:butt;stroke-linejoin:miter;stroke-miterlimit:4;stroke-dasharray:none;stroke-opacity:0.143554"
       d="m 23.487868,11.083193 -0.769979,0.271819 c -2.89605,3.904312 -5.730197,9.133117 -6.776331,10.402982 -0.988579,1.200002 -2.164519,0.439902 -3.402893,1.024744 2.149706,0.269926 3.614768,0.391888 5.015715,-2.09858 1.11931,-1.989802 4.334406,-7.057233 5.951058,-9.589596 z" />
    <path
       id="path3337"
       style="fill:#4b5459;fill-opacity:1;stroke:#000000;stroke-width:0.264583;stroke-linecap:butt;stroke-linejoin:miter;stroke-miterlimit:4;stroke-dasharray:none;stroke-opacity:0.316329"
       d="m 25.652077,12.467088 c -0.0063,0.0096 -0.01234,0.01829 -0.0186,0.02791 -4.532423,6.956413 -5.940519,8.199365 -6.919475,9.921358 -0.926088,1.628998 -0.979922,1.750522 0.663008,4.313432 -0.119258,-1.097704 -1.223179,-1.799056 -0.465087,-3.171383 0.920793,-1.666856 2.39405,-2.728617 6.895703,-10.122896 L 25.70272,12.499128 Z" />
    <path
       id="path4989"
       style="fill:#667279;fill-opacity:1;stroke:none;stroke-width:0.264583;stroke-linecap:butt;stroke-linejoin:miter;stroke-miterlimit:4;stroke-dasharray:none;stroke-opacity:1"
       d="m 10.326914,25.110245 c -0.4211847,0.638477 -0.6960818,1.152384 -0.6960818,1.152384 l 6.9447958,4.97489 0.605131,-1.402498 z" />
    <path
       style="font-variation-settings:normal;fill:none;fill-opacity:1;stroke:#20272a;stroke-width:0.264583;stroke-linecap:butt;stroke-linejoin:miter;stroke-miterlimit:4;stroke-dasharray:none;stroke-dashoffset:0;stroke-opacity:1;stop-color:#000000"
       d="M 16.622523,31.270851 9.6305842,26.262718 c 0,0 1.3736608,-2.567648 2.6913858,-3.364207 1.317724,-0.796559 2.573603,0.129329 3.619737,-1.140537 1.046133,-1.269865 3.880355,-6.498707 6.776405,-10.403019 l 0.769773,-0.271875 2.214748,1.416175 0.10487,0.936293 c -4.501654,7.394279 -5.974725,8.4558 -6.895518,10.122656 -0.920793,1.666855 0.906694,2.343808 0.378381,3.943463 -0.421246,1.275476 -2.667842,3.769184 -2.667842,3.769184 z"
       id="path5416"
       sodipodi:nodetypes="ccssccccsscc" />
    <path
       style="fill:#78878f;fill-opacity:0.747448;stroke:none;stroke-width:0.264583;stroke-linecap:butt;stroke-linejoin:miter;stroke-miterlimit:4;stroke-dasharray:none;stroke-opacity:1"
       d="m 2.0025823,9.9933687 5.3990038,-0.1622853 -0.075061,0.8473356 -5.405013,0.07833 z"
       id="path8183" />
    <path
       style="fill:none;stroke:#c3d6d8;stroke-width:0.264583;stroke-linecap:round;stroke-linejoin:miter;stroke-miterlimit:4;stroke-dasharray:none;stroke-opacity:0.161586"
       d="M 2.0229942,10.021601 7.4057665,9.8672431"
       id="path8991" />
    <path
       style="fill:#3f474c;fill-opacity:0.460769;stroke:none;stroke-width:0.264583;stroke-linecap:butt;stroke-linejoin:miter;stroke-miterlimit:4;stroke-dasharray:none;stroke-opacity:1"
       d="m 3.181245,14.284118 0.6850877,0.439874 4.8501297,0.03696 0.7332788,-0.602536 7.5364208,-9.5257357 -0.1994,1.1240523 -6.8117521,8.9165844 -1.0652837,0.39706 -5.1529457,0.0099 z"
       id="path10723"
       sodipodi:nodetypes="cccccccccc" />
    <path
       style="fill:url(#linearGradient12212);fill-opacity:1;stroke:none;stroke-width:0.264583;stroke-linecap:butt;stroke-linejoin:miter;stroke-miterlimit:4;stroke-dasharray:none;stroke-opacity:1"
       d="M 9.4679796,14.206413 C 9.5255365,14.006487 8.2025923,10.521534 8.2025923,10.521534 L 7.4736207,9.8040172 14.591219,0.58444205 15.180635,0.90943702 17.027259,4.7472982 Z"
       id="path12108" />
    <path
       id="path18755"
       style="font-variation-settings:normal;fill:none;fill-opacity:1;stroke:#000000;stroke-width:0.26458334;stroke-linecap:butt;stroke-linejoin:round;stroke-miterlimit:4;stroke-dasharray:none;stroke-dashoffset:0;stroke-opacity:1;stop-color:#000000"
       d="M 10.699501,0.3675682 9.973447,0.53086573 1.7408743,9.9850691 l -0.087333,0.8288899 1.4789795,3.585311 0.6583578,0.658875 5.0560221,0.03876 1.0764203,-0.433049 1.424719,-1.866552 c 1.947068,2.08571 3.982752,4.526574 5.918502,6.975802 -0.563049,0.907015 -1.021209,1.61615 -1.324984,1.984891 -1.046134,1.269866 -2.301692,0.34394 -3.619417,1.140499 -1.317725,0.796559 -2.6913087,3.364136 -2.6913087,3.364136 l 6.9918217,5.008479 c 0,0 2.246291,-2.493801 2.667537,-3.769278 0.528312,-1.599655 -1.299064,-2.276574 -0.378271,-3.943429 0.170443,-0.308542 0.360465,-0.59689 0.58446,-0.907955 4.046572,5.320813 7.227152,10.007266 7.46001,10.272757 0.434139,0.494983 2.253124,0.959485 3.470588,0.08733 1.217467,-0.872151 2.207504,-2.259238 1.612305,-3.166213 -0.313875,-0.478301 -5.037497,-5.644865 -9.717235,-11.010699 0.90411,-1.299316 2.036259,-3.017518 3.485575,-5.39812 l -0.104903,-0.936377 -2.214852,-1.415935 -0.769979,0.271819 c -1.03662,1.39752 -2.063892,2.963505 -3.005501,4.458125 -2.220374,-2.603643 -4.219189,-5.044675 -5.477185,-6.7990678 l 2.57452,-3.3739543 0.264066,-0.888835 -1.813843,-3.90312086 -0.710034,-0.44751793 z" />
  </g>
</svg>
